module gitlab.com/interview-test-group/verify-service

go 1.16

require (
	github.com/armon/consul-api v0.0.0-20180202201655-eb2c6b5be1b6 // indirect
	github.com/coreos/go-etcd v2.0.0+incompatible // indirect
	github.com/jmoiron/sqlx v1.3.4 // indirect
	github.com/labstack/echo v3.3.10+incompatible // indirect
	github.com/labstack/gommon v0.3.0 // indirect
	github.com/lib/pq v1.2.0 // indirect
	github.com/spf13/pflag v1.0.3 // indirect
	github.com/spf13/viper v1.7.1 // indirect
	github.com/ugorji/go/codec v0.0.0-20181204163529-d75b2dcb6bc8 // indirect
	github.com/xordataexchange/crypt v0.0.3-0.20170626215501-b2862e3d0a77 // indirect
	go.uber.org/fx v1.13.1 // indirect
	golang.org/x/crypto v0.0.0-20210513164829-c07d793c2f9a // indirect
)
